wave.vcd
$date
	Mon Dec  1 21:46:33 2025
$end
$version
	Icarus Verilog
$end
$timescale
	1ps
$end
$scope module tb $end
$scope module stim1 $end
$var wire 1 ! clk $end
$upscope $end
$upscope $end
$scope module tb $end
$var wire 1 " tb_mismatch $end
$upscope $end
$scope module tb $end
$var reg 1 ! clk $end
$upscope $end
$scope module tb $end
$var wire 8 # in [7:0] $end
$upscope $end
$scope module tb $end
$var wire 1 $ reset $end
$upscope $end
$scope module tb $end
$var wire 24 % out_bytes_ref [23:0] $end
$upscope $end
$scope module tb $end
$var wire 24 & out_bytes_dut [23:0] $end
$upscope $end
$scope module tb $end
$var wire 1 ' done_ref $end
$upscope $end
$scope module tb $end
$var wire 1 ( done_dut $end
$upscope $end
$enddefinitions $end
$comment Show the parameter values. $end
$dumpall
$end
#0
$dumpvars
x(
x'
bx &
bx %
x$
bx #
0"
0!
$end
#5
1!
#10
0$
b100100 #
0!
#15
1!
#20
b1001 #
0!
#25
1!
#30
b1101 #
0!
#35
1!
#40
b1100101 #
0!
#45
1!
#50
b1 #
0!
#55
1!
#60
b1110110 #
0!
#65
1!
#70
b11101101 #
0!
#75
1!
#80
b11111001 #
0!
#85
1!
#90
b11000101 #
0!
#95
1!
#100
b11100101 #
0!
#105
1!
#110
b10010 #
0!
#115
1!
#120
b11110010 #
0!
#125
1!
#130
b11101000 #
0!
#135
1!
#140
b1011100 #
0!
#145
1!
#150
b101101 #
0!
#155
1!
#160
b1100011 #
0!
#165
1!
#170
1$
b10000000 #
0!
#175
0"
0(
b0 &
0'
1!
#180
0$
b10101010 #
0!
#185
1!
#190
b10010110 #
0!
#195
b10010110 &
1!
#200
b1101 #
0!
#205
b101010101001011000001101 %
1"
1'
b110110010110 &
1!
#210
b1101011 #
0!
#215
bx %
1(
b11010110000110110010110 &
0'
1!
#220
b10 #
0!
#225
1!
#230
b11101 #
0!
#235
b11010110000001000011101 %
1"
1'
1!
#240
b100011 #
0!
#245
bx %
0'
b11010110000110100100011 &
1!
#250
b11001010 #
0!
#255
b11010111100101000100011 &
1!
#260
b11110010 #
0!
#265
b111100101100101000100011 &
1!
#270
b1000001 #
0!
#275
b110010101111001001000001 %
1"
1'
1!
#280
b1111000 #
0!
#285
bx %
0'
1!
#290
b11101011 #
0!
#295
b111100101100101011101011 &
1!
#300
b11000110 #
0!
#305
b11110001110101111000110 %
1"
1'
b111100101100011011101011 &
1!
#310
b10111100 #
0!
#315
bx %
b101111001100011011101011 &
0'
1!
#320
b1011 #
0!
#325
1!
#330
b10000101 #
0!
#335
b101111000000101110000101 %
1"
b101111001100011010000101 &
1'
1!
#340
b111011 #
0!
#345
bx %
0'
b101111000011101110000101 &
1!
#350
b1111110 #
0!
#355
b11111100011101110000101 &
1!
#360
b11110001 #
0!
#365
b1110110111111011110001 %
1"
1'
1!
#370
b1100010 #
0!
#375
bx %
0'
1!
#380
b10011111 #
0!
#385
1!
#390
b11111000 #
0!
#395
b11111100011101111111000 &
1!
#400
b10011111 #
0!
#405
b100111111111100010011111 %
1"
1'
b11111101001111111111000 &
1!
#410
b1011011 #
0!
#415
bx %
b10110111001111111111000 &
0'
1!
#420
b1001001 #
0!
#425
1!
#430
b11010111 #
0!
#435
b10110110100100111010111 %
1"
b10110111001111111010111 &
1'
1!
#440
b10010110 #
0!
#445
bx %
0'
b10110111001011011010111 &
1!
#450
b11000010 #
0!
#455
b110000101001011011010111 &
1!
#460
b1110111 #
0!
#465
1!
#470
b10010 #
0!
#475
1!
#480
b1101101 #
0!
#485
1!
#490
b11111 #
0!
#495
b110000101001011000011111 &
1!
#500
b10000101 #
0!
#505
b11011010001111110000101 %
1"
1'
b110000101000010100011111 &
1!
#510
b1011011 #
0!
#515
bx %
b10110111000010100011111 &
0'
1!
#520
b111111 #
0!
#525
1!
#530
b1011000 #
0!
#535
b10110110011111101011000 %
1"
b10110111000010101011000 &
1'
1!
#540
b10001110 #
0!
#545
bx %
0'
b10110111000111001011000 &
1!
#550
b11111010 #
0!
#555
b111110101000111001011000 &
1!
#560
b1110011 #
0!
#565
b100011101111101001110011 %
1"
1'
1!
#570
b101111 #
0!
#575
bx %
0'
1!
#580
b1011111 #
0!
#585
b111110101000111001011111 &
1!
#590
b11110111 #
0!
#595
b1011110101111111110111 %
1"
b111110101111011101011111 &
1'
1!
#600
b11100110 #
0!
#605
bx %
0'
b111001101111011101011111 &
1!
#610
b101001 #
0!
#615
1!
#620
b11011010 #
0!
#625
b111001101111011111011010 &
1!
#630
b10110101 #
0!
#635
b1010011101101010110101 %
1"
b111001101011010111011010 &
1'
1!
#640
b1111001 #
0!
#645
bx %
0'
b11110011011010111011010 &
1!
#650
b11010000 #
0!
#655
1!
#660
b10101011 #
0!
#665
b11110011101000010101011 %
1"
1'
1!
#670
b11011100 #
0!
#675
bx %
b11110011011010111011100 &
0'
1!
#680
b11111101 #
0!
#685
b11110011111110111011100 &
1!
#690
b1010110 #
0!
#695
b110111001111110101010110 %
1"
b10101101111110111011100 &
1'
1!
#700
b1100111 #
0!
#705
bx %
0'
1!
#710
b10110110 #
0!
#715
1!
#720
b1111001 #
0!
#725
1!
#730
b10010100 #
0!
#735
b10101101111110110010100 &
1!
#740
b100 #
0!
#745
b11110011001010000000100 %
1"
1'
b10101100000010010010100 &
1!
#750
b11011011 #
0!
#755
bx %
b110110110000010010010100 &
0'
1!
#760
b11011001 #
0!
#765
1!
#770
b1110110 #
0!
#775
b110110111101100101110110 %
1"
b110110110000010001110110 &
1'
1!
#780
b10110110 #
0!
#785
bx %
0'
b110110111011011001110110 &
1!
#790
b1000110 #
0!
#795
b10001101011011001110110 &
1!
#800
b11110111 #
0!
#805
1!
#810
b10110100 #
0!
#815
1!
#820
b101000 #
0!
#825
1!
#830
b11000111 #
0!
#835
b10001101011011011000111 &
1!
#840
b1000 #
0!
#845
b1010001100011100001000 %
1"
1'
b10001100000100011000111 &
1!
#850
b11111101 #
0!
#855
bx %
b111111010000100011000111 &
0'
1!
#860
b11100 #
0!
#865
1!
#870
b11011010 #
0!
#875
b111111010001110011011010 %
1"
b111111010000100011011010 &
1'
1!
#880
b1100110 #
0!
#885
bx %
0'
b111111010110011011011010 &
1!
#890
b1110011 #
0!
#895
b11100110110011011011010 &
1!
#900
b1011110 #
0!
#905
1!
#910
b11010101 #
0!
#915
b11100110110011011010101 &
1!
#920
b10111001 #
0!
#925
b10111101101010110111001 %
1"
1'
b11100111011100111010101 &
1!
#930
1$
b10010110 #
0!
#935
0"
bx %
0(
b0 &
0'
1!
#940
0$
b100110 #
0!
#945
1!
#950
b1111101 #
0!
#955
1!
#960
b10000110 #
0!
#965
b10000110 &
1!
#970
b1111110 #
0!
#975
b11111011000011001111110 %
1"
b111111010000110 &
1'
1!
#980
b11001111 #
0!
#985
bx %
0'
1(
b110011110111111010000110 &
1!
#990
b11111010 #
0!
#995
1!
#1000
b10111 #
0!
#1005
b110011111111101000010111 %
1"
1'
b110011110111111000010111 &
1!
#1010
b10000110 #
0!
#1015
bx %
b110011111000011000010111 &
0'
1!
#1020
b11110101 #
0!
#1025
b111101011000011000010111 &
1!
#1030
b101001 #
0!
#1035
1!
#1040
b11000101 #
0!
#1045
b111101011000011011000101 &
1!
#1050
b1001011 #
0!
#1055
b1010011100010101001011 %
1"
b111101010100101111000101 &
1'
1!
#1060
b11101100 #
0!
#1065
bx %
0'
b111011000100101111000101 &
1!
#1070
b1001110 #
0!
#1075
1!
#1080
b10101001 #
0!
#1085
b111011000100111010101001 %
1"
1'
b111011000100101110101001 &
1!
#1090
b1110 #
0!
#1095
bx %
b111011000000111010101001 &
0'
1!
#1100
b10011111 #
0!
#1105
b100111110000111010101001 &
1!
#1110
b101010 #
0!
#1115
b11101001111100101010 %
1"
1'
1!
#1120
b10011110 #
0!
#1125
bx %
0'
b100111110000111010011110 &
1!
#1130
b1111001 #
0!
#1135
b100111110111100110011110 &
1!
#1140
b11001010 #
0!
#1145
b100111100111100111001010 %
1"
1'
b110010100111100110011110 &
1!
#1150
b1101011 #
0!
#1155
bx %
0'
1!
#1160
b10110110 #
0!
#1165
b110010100111100110110110 &
1!
#1170
b11000100 #
0!
#1175
b11010111011011011000100 %
1"
b110010101100010010110110 &
1'
1!
#1180
b10010010 #
0!
#1185
bx %
0'
b100100101100010010110110 &
1!
#1190
b1111111 #
0!
#1195
1!
#1200
b11111010 #
0!
#1205
b100100101100010011111010 &
1!
#1210
b110010 #
0!
#1215
b11111111111101000110010 %
1"
b100100100011001011111010 &
1'
1!
#1220
b10000100 #
0!
#1225
bx %
0'
b100001000011001011111010 &
1!
#1230
b11001010 #
0!
#1235
1!
#1240
b10100001 #
0!
#1245
b100001000011001010100001 &
1!
#1250
b11111011 #
0!
#1255
b110010101010000111111011 %
1"
b100001001111101110100001 &
1'
1!
#1260
b11101111 #
0!
#1265
bx %
0'
b111011111111101110100001 &
1!
#1270
b110110 #
0!
#1275
1!
#1280
b10001111 #
0!
#1285
b111011110011011010001111 %
1"
1'
1!
#1290
b10001000 #
0!
#1295
bx %
b111011111111101110001000 &
0'
1!
#1300
b10011011 #
0!
#1305
b111011111001101110001000 &
1!
#1310
b101000 #
0!
#1315
b100010001001101100101000 %
1"
b1010001001101110001000 &
1'
1!
#1320
b1001011 #
0!
#1325
bx %
0'
1!
#1330
b11110 #
0!
#1335
b1010001001101100011110 &
1!
#1340
b11101100 #
0!
#1345
b10010110001111011101100 %
1"
1'
b1010001110110000011110 &
1!
#1350
b11010001 #
0!
#1355
bx %
b110100011110110000011110 &
0'
1!
#1360
b1000001 #
0!
#1365
1!
#1370
b11011000 #
0!
#1375
1!
#1380
b1010110 #
0!
#1385
b110100011110110001010110 &
1!
#1390
b11100010 #
0!
#1395
b110110000101011011100010 %
1"
b110100011110001001010110 &
1'
1!
#1400
b1110011 #
0!
#1405
bx %
0'
b11100111110001001010110 &
1!
#1410
b10010 #
0!
#1415
1!
#1420
b111001 #
0!
#1425
1!
#1430
b10100001 #
0!
#1435
b11100111110001010100001 &
1!
#1440
b10000001 #
0!
#1445
b1110011010000110000001 %
1"
1'
b11100111000000110100001 &
1!
#1450
b100111 #
0!
#1455
bx %
b1001111000000110100001 &
0'
1!
#1460
b11111 #
0!
#1465
1!
#1470
b1011000 #
0!
#1475
b1001111000000101011000 &
1!
#1480
b10100 #
0!
#1485
b111110101100000010100 %
1"
1'
b1001110001010001011000 &
1!
#1490
b10010110 #
0!
#1495
bx %
b100101100001010001011000 &
0'
1!
#1500
b1010101 #
0!
#1505
1!
#1510
b101011 #
0!
#1515
1!
#1520
b10101101 #
0!
#1525
b100101100001010010101101 &
1!
#1530
b10000100 #
0!
#1535
b1010111010110110000100 %
1"
b100101101000010010101101 &
1'
1!
#1540
b11100111 #
0!
#1545
bx %
0'
b111001111000010010101101 &
1!
#1550
b1001001 #
0!
#1555
1!
#1560
b11001001 #
0!
#1565
b111001111000010011001001 &
1!
#1570
b10100001 #
0!
#1575
b10010011100100110100001 %
1"
b111001111010000111001001 &
1'
1!
#1580
b11111010 #
0!
#1585
bx %
0'
b111110101010000111001001 &
1!
#1590
b10000011 #
0!
#1595
1!
#1600
b1110010 #
0!
#1605
b111110101000001101110010 %
1"
1'
1!
#1610
b1101000 #
0!
#1615
bx %
0'
1!
#1620
b10000110 #
0!
#1625
b111110101010000110000110 &
1!
#1630
1$
b111000 #
0!
#1635
0"
0(
b0 &
1!
#1640
0$
b101000 #
0!
#1645
1!
#1650
1$
b11000101 #
0!
#1655
1!
#1660
0$
b1110100 #
0!
#1665
1!
#1670
b10110000 #
0!
#1675
1!
#1680
b101010 #
0!
#1685
1!
#1690
b10101 #
0!
#1695
b10101 &
1!
#1700
b10111 #
0!
#1705
b1010100001010100010111 %
1"
1'
b1011100010101 &
1!
#1710
b11001001 #
0!
#1715
bx %
1(
b110010010001011100010101 &
0'
1!
#1720
b100101 #
0!
#1725
1!
#1730
b10001101 #
0!
#1735
b110010010010010110001101 %
1"
1'
1!
#1740
b111 #
0!
#1745
bx %
0'
b110010010001011100000111 &
1!
#1750
b1100 #
0!
#1755
b110010010000110000000111 &
1!
#1760
b111011 #
0!
#1765
b1110110000110000000111 &
1!
#1770
b11110111 #
0!
#1775
b11000011101111110111 %
1"
1'
1!
#1780
b1011100 #
0!
#1785
bx %
0'
1!
#1790
1$
b100000 #
0!
#1795
0"
0(
b0 &
1!
#1800
0$
b1110010 #
0!
#1805
1!
#1810
b11011101 #
0!
#1815
1!
#1820
b1001011 #
0!
#1825
b1001011 &
1!
#1830
b10011110 #
0!
#1835
b110111010100101110011110 %
1"
b1001111001001011 &
1'
1!
#1840
b1111011 #
0!
#1845
bx %
0'
1(
b11110111001111001001011 &
1!
#1850
b11 #
0!
#1855
1!
#1860
b11101 #
0!
#1865
b11110110000001100011101 %
1"
1'
1!
#1870
b1000100 #
0!
#1875
bx %
b11110111001111001000100 &
0'
1!
#1880
b11100000 #
0!
#1885
b11110111110000001000100 &
1!
#1890
b1010010 #
0!
#1895
b10100101110000001000100 &
1!
#1900
b10001101 #
0!
#1905
1!
#1910
b10000100 #
0!
#1915
b10100101110000010000100 &
1!
#1920
b10001100 #
0!
#1925
b100011011000010010001100 %
1"
1'
b10100101000110010000100 &
1!
#1930
b10111 #
0!
#1935
bx %
b101111000110010000100 &
0'
1!
#1940
b10000100 #
0!
#1945
1!
#1950
1$
b1111100 #
0!
#1955
0"
0(
b0 &
1!
#1960
0$
b10111010 #
0!
#1965
1!
#1970
b10100110 #
0!
#1975
b10100110 &
1!
#1980
b110010 #
0!
#1985
b101110101010011000110010 %
1"
1'
b11001010100110 &
1!
#1990
b1001001 #
0!
#1995
bx %
1(
b10010010011001010100110 &
0'
1!
#2000
b0 #
0!
#2005
1!
#2010
0!
#2015
b10010010000000000000000 %
1"
1'
1!
#2020
0!
#2025
bx %
0'
1!
#2030
0!
#2035
1!
#2040
0!
#2045
1!
#2050
0!
#2055
1!
#2060
0!
#2065
1!
#2070
0!
#2075
1!
#2080
0!
#2085
1!
#2090
0!
#2095
b1011100 #
1!
#2100
0!
#2105
b1000111 #
1!
#2110
0!
#2115
b10000110 #
b10010010011001001000111 &
1!
#2120
0!
#2125
b10111000100011110000110 %
1"
1'
b10010011000011001000111 &
b111001 #
1!
#2130
0!
#2135
bx %
b10110100 #
b1110011000011001000111 &
0'
1!
#2140
0!
#2145
b11010000 #
1!
#2150
0!
#2155
b1110011011010011010000 %
1"
b101100 #
1'
1!
#2160
0!
#2165
bx %
0'
b10001100 #
1!
#2170
0!
#2175
b111 #
b1110011000011010001100 &
1!
#2180
0!
#2185
b1011001000110000000111 %
1"
1'
b1110010000011110001100 &
b1101010 #
1!
#2190
0!
#2195
bx %
b10001 #
b11010100000011110001100 &
0'
1!
#2200
0!
#2205
b11101000 #
1!
#2210
0!
#2215
b11010100001000111101000 %
1"
b1001011 #
1'
1!
#2220
0!
#2225
bx %
0'
b11010100000011101001011 &
b1110011 #
1!
#2230
0!
#2235
b11101100 #
b11010100111001101001011 &
1!
#2240
0!
#2245
b10010110111001111101100 %
1"
1'
b111011000111001101001011 &
b101011 #
1!
#2250
0!
#2255
bx %
b10100100 #
0'
1!
#2260
0!
#2265
b111011000111001110100100 &
b11001001 #
1!
#2270
0!
#2275
b1010111010010011001001 %
1"
b111001 #
b111011001100100110100100 &
1'
1!
#2280
0!
#2285
bx %
0'
b1110011100100110100100 &
b11011111 #
1!
#2290
0!
#2295
b11010100 #
1!
#2300
0!
#2305
b1110011101111111010100 %
1"
1'
b1110011100100111010100 &
b1101111 #
1!
#2310
0!
#2315
bx %
b10011101 #
b1110010110111111010100 &
0'
1!
#2320
0!
#2325
b100111010110111111010100 &
b10110000 #
1!
#2330
0!
#2335
b11011111001110110110000 %
1"
b10001010 #
1'
1!
#2340
0!
#2345
bx %
0'
b1001001 #
1!
#2350
0!
#2355
b11011001 #
b100111010110111101001001 &
1!
#2360
0!
#2365
b100010100100100111011001 %
1"
1'
b100111011101100101001001 &
b101000 #
1!
#2370
0!
#2375
bx %
b11100 #
b1010001101100101001001 &
0'
1!
#2380
0!
#2385
b10010011 #
1!
#2390
0!
#2395
b1010000001110010010011 %
1"
b11101011 #
b1010001101100110010011 &
1'
1!
#2400
0!
#2405
bx %
0'
b1010001110101110010011 &
b101010 #
1!
#2410
0!
#2415
b11001000 #
b1010101110101110010011 &
1!
#2420
0!
#2425
b111010110010101011001000 %
1"
1'
b1011101 #
1!
#2430
0!
#2435
bx %
b111010 #
b1010101110101101011101 &
0'
1!
#2440
0!
#2445
b1010100011101001011101 &
b10000100 #
1!
#2450
0!
#2455
b10111010011101010000100 %
1"
b101011 #
b100001000011101001011101 &
1'
1!
#2460
0!
#2465
bx %
0'
b111001 #
1!
#2470
0!
#2475
b10010 #
b100001000011101000111001 &
1!
#2480
0!
#2485
b1010110011100100010010 %
1"
1'
b100001000001001000111001 &
b1011010 #
1!
#2490
0!
#2495
bx %
b1011001 #
b10110100001001000111001 &
0'
1!
#2500
0!
#2505
b11010000 #
1!
#2510
0!
#2515
b10110100101100111010000 %
1"
b1101110 #
b10110100001001011010000 &
1'
1!
#2520
0!
#2525
bx %
0'
b10110100110111011010000 &
b10010111 #
1!
#2530
0!
#2535
b11011011 #
b100101110110111011010000 &
1!
#2540
0!
#2545
b11011101001011111011011 %
1"
1'
b10101110 #
1!
#2550
0!
#2555
bx %
b10111011 #
b100101110110111010101110 &
0'
1!
#2560
0!
#2565
b100101111011101110101110 &
b0 #
1!
#2570
0!
#2575
b101011101011101100000000 %
1"
b1111 #
b1011101110101110 &
1'
1!
#2580
0!
#2585
bx %
0'
b1101001 #
1!
#2590
0!
#2595
b1100 #
b1011101101101001 &
1!
#2600
0!
#2605
b11110110100100001100 %
1"
1'
b110001101001 &
b1011001 #
1!
#2610
0!
#2615
bx %
b11000101 #
b10110010000110001101001 &
0'
1!
#2620
0!
#2625
b11001111 #
1!
#2630
0!
#2635
b10110011100010111001111 %
1"
b10011000 #
1'
1!
#2640
0!
#2645
bx %
0'
b10110010000110010011000 &
b1010001 #
1!
#2650
0!
#2655
b1101001 #
b10110010101000110011000 &
1!
#2660
0!
#2665
b100110000101000101101001 %
1"
1'
b11010010101000110011000 &
b1111111 #
1!
#2670
0!
#2675
bx %
b1001010 #
0'
1!
#2680
0!
#2685
b11010010101000101001010 &
b11011000 #
1!
#2690
0!
#2695
b11111110100101011011000 %
1"
b10011011 #
b11010011101100001001010 &
1'
1!
#2700
0!
#2705
bx %
0'
b100110111101100001001010 &
b11000100 #
1!
#2710
0!
#2715
b10111000 #
1!
#2720
0!
#2725
b100110111100010010111000 %
1"
1'
b10111111 #
1!
#2730
0!
#2735
bx %
b10000110 #
b100110111101100010111111 &
0'
1!
#2740
0!
#2745
b100110111000011010111111 &
b110000 #
1!
#2750
0!
#2755
b101111111000011000110000 %
1"
b1111111 #
b1100001000011010111111 &
1'
1!
#2760
0!
#2765
bx %
0'
b10110101 #
1!
#2770
0!
#2775
b11010100 #
b1100001000011010110101 &
1!
#2780
0!
#2785
b11111111011010111010100 %
1"
1'
b1100001101010010110101 &
b1111 #
1!
#2790
0!
#2795
bx %
b1110110 #
b11111101010010110101 &
0'
1!
#2800
0!
#2805
b11101001 #
1!
#2810
0!
#2815
b11110111011011101001 %
1"
b10001011 #
1'
1!
#2820
0!
#2825
bx %
0'
b11111101010010001011 &
b1 #
1!
#2830
0!
#2835
b11011011 #
b11110000000110001011 &
1!
#2840
0!
#2845
b100010110000000111011011 %
1"
1'
b110110110000000110001011 &
b10001000 #
1!
#2850
0!
#2855
bx %
b11000010 #
0'
1!
#2860
0!
#2865
b110110110000000111000010 &
b11000101 #
1!
#2870
0!
#2875
b100010001100001011000101 %
1"
b111000 #
b110110111100010111000010 &
1'
1!
#2880
0!
#2885
bx %
0'
b1110001100010111000010 &
b10101111 #
1!
#2890
0!
#2895
b1100110 #
1!
#2900
0!
#2905
b1110001010111101100110 %
1"
1'
b1110001100010101100110 &
b10101111 #
1!
#2910
0!
#2915
bx %
b11101001 #
b1110001010111101100110 &
0'
1!
#2920
0!
#2925
b111010011010111101100110 &
b11111000 #
1!
#2930
0!
#2935
b101011111110100111111000 %
1"
b1110 #
1'
1!
#2940
0!
#2945
bx %
0'
b111010011010111100001110 &
b11101111 #
1!
#2950
0!
#2955
b11100001 #
b111010011110111100001110 &
1!
#2960
0!
#2965
b11101110111111100001 %
1"
1'
b111000011110111100001110 &
b10011101 #
1!
#2970
0!
#2975
bx %
b11101110 #
0'
1!
#2980
0!
#2985
b111000011110111111101110 &
b1100000 #
1!
#2990
0!
#2995
b100111011110111001100000 %
1"
b11101101 #
b111000010110000011101110 &
1'
1!
#3000
0!
#3005
bx %
0'
b111011010110000011101110 &
b101000 #
1!
#3010
0!
#3015
b1100100 #
1!
#3020
0!
#3025
b111011010010100001100100 %
1"
1'
b111011010110000001100100 &
b101001 #
1!
#3030
0!
#3035
bx %
b11100001 #
b111011010010100101100100 &
0'
1!
#3040
0!
#3045
b111000010010100101100100 &
b1110111 #
1!
#3050
0!
#3055
b1010011110000101110111 %
1"
b1101110 #
1'
1!
#3060
0!
#3065
bx %
0'
b10000001 #
1!
#3070
0!
#3075
b11010101 #
b111000010010100110000001 &
1!
#3080
0!
#3085
b11011101000000111010101 %
1"
1'
b111000011101010110000001 &
b1101000 #
1!
#3090
0!
#3095
bx %
b11110000 #
b11010001101010110000001 &
0'
1!
#3100
0!
#3105
b10101010 #
1!
#3110
0!
#3115
b11010001111000010101010 %
1"
b1111 #
1'
1!
#3120
0!
#3125
bx %
0'
b11010001101010100001111 &
b11110001 #
1!
#3130
0!
#3135
b1111101 #
b11010001111000100001111 &
1!
#3140
0!
#3145
b11111111000101111101 %
1"
1'
b11111011111000100001111 &
b10001110 #
1!
#3150
0!
#3155
bx %
b11100010 #
0'
1!
#3160
0!
#3165
b11111011111000111100010 &
b111100 #
1!
#3170
0!
#3175
b100011101110001000111100 %
1"
b10101001 #
b11111010011110011100010 &
1'
1!
#3180
0!
#3185
bx %
0'
b101010010011110011100010 &
b11101111 #
1!
#3190
0!
#3195
b1011011 #
1!
#3200
0!
#3205
b101010011110111101011011 %
1"
1'
b101010010011110001011011 &
b10101111 #
1!
#3210
0!
#3215
bx %
b1001010 #
b101010011010111101011011 &
0'
1!
#3220
0!
#3225
b10010101010111101011011 &
b10111001 #
1!
#3230
0!
#3235
b101011110100101010111001 %
1"
b11011 #
1'
1!
#3240
0!
#3245
bx %
0'
b10010101010111100011011 &
b10011 #
1!
#3250
0!
#3255
b1100101 #
b10010100001001100011011 &
1!
#3260
0!
#3265
b110110001001101100101 %
1"
1'
b11001010001001100011011 &
b1011001 #
1!
#3270
0!
#3275
bx %
b10110111 #
0'
1!
#3280
0!
#3285
b11001010001001110110111 &
b10011001 #
1!
#3290
0!
#3295
b10110011011011110011001 %
1"
b111010 #
b11001011001100110110111 &
1'
1!
#3300
0!
#3305
bx %
0'
b1110101001100110110111 &
b1110001 #
1!
#3310
0!
#3315
b1100010 #
1!
#3320
0!
#3325
b1110100111000101100010 %
1"
1'
b11101100 #
1!
#3330
0!
#3335
bx %
b101010 #
0'
1!
#3340
0!
#3345
b1110101001100100101010 &
b1111101 #
1!
#3350
0!
#3355
b111011000010101001111101 %
1"
b1011001 #
b1110100111110100101010 &
1'
1!
#3360
0!
#3365
bx %
0'
b10110010111110100101010 &
b11100101 #
1!
#3370
0!
#3375
b11101101 #
1!
#3380
0!
#3385
b10110011110010111101101 %
1"
1'
b11001001 #
1!
#3390
0!
#3395
bx %
b1000001 #
b10110010111110111001001 &
0'
1!
#3400
0!
#3405
b10110010100000111001001 &
b10101111 #
1!
#3410
0!
#3415
b110010010100000110101111 %
1"
b11011011 #
b101011110100000111001001 &
1'
1!
#3420
0!
#3425
bx %
0'
b11001101 #
1!
#3430
0!
#3435
b1110000 #
b101011110100000111001101 &
1!
#3440
0!
#3445
b110110111100110101110000 %
1"
1'
b101011110111000011001101 &
b1110 #
1!
#3450
0!
#3455
bx %
b10100010 #
b11100111000011001101 &
0'
1!
#3460
0!
#3465
b10111101 #
1!
#3470
0!
#3475
b11101010001010111101 %
1"
b1101010 #
1'
1!
#3480
0!
#3485
bx %
0'
b11100111000001101010 &
b11011100 #
1!
#3490
0!
#3495
b1010000 #
b11101101110001101010 &
1!
#3500
0!
#3505
b11010101101110001010000 %
1"
1'
b10100001101110001101010 &
b1111011 #
1!
#3510
0!
#3515
bx %
b100101 #
0'
1!
#3520
0!
#3525
b10100001101110000100101 &
b1111000 #
1!
#3530
0!
#3535
b11110110010010101111000 %
1"
b11111110 #
b10100000111100000100101 &
1'
1!
#3540
0!
#3545
bx %
0'
b111111100111100000100101 &
b1011100 #
1!
#3550
0!
#3555
b100011 #
1!
#3560
0!
#3565
b111111100101110000100011 %
1"
1'
b111111100111100000100011 &
b1111001 #
1!
#3570
0!
#3575
bx %
b11001000 #
b111111100111100100100011 &
0'
1!
#3580
0!
#3585
b110010000111100100100011 &
b10111011 #
1!
#3590
0!
#3595
b11110011100100010111011 %
1"
b1110 #
1'
1!
#3600
0!
#3605
bx %
0'
b110010000111100100001110 &
b1110011 #
1!
#3610
0!
#3615
b1100 #
b110010000111001100001110 &
1!
#3620
0!
#3625
b11100111001100001100 %
1"
1'
b11000111001100001110 &
b11001110 #
1!
#3630
0!
#3635
bx %
b11010100 #
0'
1!
#3640
0!
#3645
b11000111001111010100 &
b1011001 #
1!
#3650
0!
#3655
b110011101101010001011001 %
1"
b10111001 #
b11000101100111010100 &
1'
1!
#3660
0!
#3665
bx %
0'
b101110010101100111010100 &
b10110011 #
1!
#3670
0!
#3675
b11110100 #
1!
#3680
0!
#3685
b101110011011001111110100 %
1"
1'
b1111101 #
1!
#3690
0!
#3695
bx %
b1100 #
0'
1!
#3700
0!
#3705
b101110010101100100001100 &
b111001 #
1!
#3710
0!
#3715
b11111010000110000111001 %
1"
b1010 #
b101110010011100100001100 &
1'
1!
#3720
0!
#3725
bx %
0'
b10100011100100001100 &
b10101 #
1!
#3730
0!
#3735
b101 #
1!
#3740
0!
#3745
b10100001010100000101 %
1"
1'
b1001110 #
1!
#3750
0!
#3755
bx %
b10 #
0'
1!
#3760
0!
#3765
b10100011100100000010 &
b10111000 #
1!
#3770
0!
#3775
b10011100000001010111000 %
1"
b1000 #
b10101011100000000010 &
1'
1!
#3780
0!
#3785
bx %
0'
b10001011100000000010 &
b10001101 #
1!
#3790
0!
#3795
b10101111 #
1!
#3800
0!
#3805
b10001000110110101111 %
1"
1'
b10001011100010101111 &
b11101000 #
1!
#3810
0!
#3815
bx %
b10010000 #
b10001110100010101111 &
0'
1!
#3820
0!
#3825
b100100001110100010101111 &
b11110101 #
1!
#3830
0!
#3835
b111010001001000011110101 %
1"
b1001100 #
1'
1!
#3840
0!
#3845
bx %
0'
b1111011 #
1!
#3850
0!
#3855
b1000000 #
b100100001110100001111011 &
1!
#3860
0!
#3865
b10011000111101101000000 %
1"
1'
b100100000100000001111011 &
b101101 #
1!
#3870
0!
#3875
bx %
b1101 #
b1011010100000001111011 &
0'
1!
#3880
0!
#3885
b1110000 #
1!
#3890
0!
#3895
b1011010000110101110000 %
1"
b101101 #
b1011010100000001110000 &
1'
1!
#3900
0!
#3905
bx %
0'
b1011010010110101110000 &
b101001 #
1!
#3910
0!
#3915
b10111100 #
b1010010010110101110000 &
1!
#3920
0!
#3925
b1011010010100110111100 %
1"
1'
b111000 #
1!
#3930
0!
#3935
bx %
b11000000 #
b1010010010110100111000 &
0'
1!
#3940
0!
#3945
b1010011100000000111000 &
b1010000 #
1!
#3950
0!
#3955
b1110001100000001010000 %
1"
b10101001 #
b10100001100000000111000 &
1'
1!
#3960
0!
#3965
bx %
0'
b1001101 #
1!
#3970
0!
#3975
b11110101 #
b10100001100000001001101 &
1!
#3980
0!
#3985
b101010010100110111110101 %
1"
1'
b10100001111010101001101 &
b11111101 #
1!
#3990
0!
#3995
bx %
b1011101 #
b111111011111010101001101 &
0'
1!
#4000
0!
#4005
b10010100 #
1!
#4010
0!
#4015
b111111010101110110010100 %
1"
b1101010 #
b111111011111010110010100 &
1'
1!
#4020
0!
#4025
bx %
0'
b111111010110101010010100 &
b10111100 #
1!
#4030
0!
#4035
b10111000 #
b101111000110101010010100 &
1!
#4040
0!
#4045
b11010101011110010111000 %
1"
1'
b10011110 #
1!
#4050
0!
#4055
bx %
b11111010 #
b101111000110101010011110 &
0'
1!
#4060
0!
#4065
b101111001111101010011110 &
b1000110 #
1!
#4070
0!
#4075
b100111101111101001000110 %
1"
b1111 #
b10001101111101010011110 &
1'
1!
#4080
0!
#4085
bx %
0'
b10010011 #
1!
#4090
0!
#4095
b1010101 #
b10001101111101010010011 &
1!
#4100
0!
#4105
b11111001001101010101 %
1"
1'
b10001100101010110010011 &
b10111111 #
1!
#4110
0!
#4115
bx %
b1000101 #
b101111110101010110010011 &
0'
1!
#4120
0!
#4125
b1100011 #
1!
#4130
0!
#4135
b101111110100010101100011 %
1"
b1011001 #
1'
1!
#4140
0!
#4145
bx %
0'
b100110 #
1!
#4150
0!
#4155
b1101000 #
b101111110101010100100110 &
1!
#4160
0!
#4165
b10110010010011001101000 %
1"
1'
b101111110110100000100110 &
b11110 #
1!
#4170
0!
#4175
bx %
b10010000 #
b111100110100000100110 &
0'
1!
#4180
0!
#4185
b1011010 #
1!
#4190
0!
#4195
b111101001000001011010 %
1"
b11100 #
1'
1!
#4200
0!
#4205
bx %
0'
b111100110100000011100 &
b10111001 #
1!
#4210
0!
#4215
b10101011 #
b111101011100100011100 &
1!
#4220
0!
#4225
b111001011100110101011 %
1"
1'
b101010111011100100011100 &
b11011000 #
1!
#4230
0!
#4235
bx %
b1101111 #
0'
1!
#4240
0!
